…
shoelati |>
  count(brand, general_type)
#> # A tibble: 30 × 3
#>    brand    general_type     n
#>    <chr>    <chr>        <int>
#>  1 Adidas   everyday        56
#>  2 Adidas   fashion          8
#>  3 Adidas   slides           3
#>  4 Adidas   work-out        33
#>  5 Asics    everyday         2
#>  6 Asics    trail            3
#>  7 Asics    work-out        95
#>  8 Converse everyday        89
#>  9 Converse skates           4
#> 10 Converse work-out         7
#> # … with 20 more rows
```
…
